{
	"name" : "laravel/laravel",
	"type" : "project",
	"description" : "The Laravel Framework.",
	"keywords" : [
		"framework",
		"laravel"
	],
	"license" : "MIT",
	"require" : {
		"php": "^7.3|^8.0",
		"barryvdh/laravel-debugbar": "^3.2",
		"fideloper/proxy": "^4.0",
		"intervention/image": "^2.5",
		"laravel/framework": "^8.0",
		"laravel/tinker": "^2.0",
		"laravel/ui": "^2.0",
		"yajra/laravel-datatables": "^1.0"
	},
	"require-dev" : {
		"beyondcode/laravel-dump-server" : "^1.0",
		"filp/whoops" : "^2.0",
		"fzaninotto/faker" : "^1.4",
		"mockery/mockery" : "^1.0",
		"nunomaduro/collision" : "^5.0",
		"phpunit/phpunit" : "^9.0"
	},
	"config" : {
		"optimize-autoloader" : true,
		"preferred-install" : "dist",
		"sort-packages" : true
	},
	"extra": {
	    "laravel": {
	        "dont-discover": [
	            "laravel/dusk"
	        ]
	    }
	},
	"autoload" : {
		"psr-4" : {
			"App\\" : "app/"
		},
		"classmap" : [
			"database/seeds",
			"database/factories"
		],
        "files" : [
            "app/Vendor/Saizfact/helpers.php",
            "app/Vendor/Greeny/helpers.php"
        ]
	},
	"autoload-dev" : {
		"psr-4" : {
			"Tests\\" : "tests/"
		}
	},
	"minimum-stability" : "dev",
	"prefer-stable" : true,
	"scripts" : {
		"post-autoload-dump" : [
			"Illuminate\\Foundation\\ComposerScripts::postAutoloadDump",
			"@php artisan package:discover --ansi"
		],
		"post-root-package-install" : "@php -r \"file_exists('.env') || copy('.env.example', '.env');\"",
		"post-create-project-cmd" : "@php artisan key:generate --ansi"
	}
}
