<?xml version="1.0" encoding="utf-8"?>
<!-- Generator: Adobe Illustrator 23.0.1, SVG Export Plug-In . SVG Version: 6.00 Build 0)  -->
<svg version="1.1" id="Gruppe_528" xmlns="http://www.w3.org/2000/svg" xmlns:xlink="http://www.w3.org/1999/xlink" x="0px" y="0px"
	 viewBox="0 0 365 328.5" style="enable-background:new 0 0 365 328.5;" xml:space="preserve">
<style type="text/css">
	.st0{fill:#449B23;}
	.st1{fill:#1DACC4;}
	.st2{fill:#8C8B8B;}
</style>
<g>
	<g id="Gruppe_525">
		<path id="Pfad_315" class="st0" d="M75.4,231.3c0.8-0.6,1.8-0.9,2.8-0.8c2.3,0,4.2-1.9,4.1-4.3c0-2.3-1.9-4.1-4.1-4.1
			c-3.6-0.1-7,1.5-9.3,4.3c-2.8-1.1-5.9-1.6-8.9-1.6c-11.5,0-18.2,6.1-18.2,15.9c-0.2,3.6,0.9,7.2,3.1,10.1
			c-2.1,1.4-3.3,3.7-3.3,6.2c0,3.3,2,5.6,4.4,7.1c-4,2.5-5.6,5.8-5.6,9.1c0,10.9,10.6,13.8,20.8,13.8c11.8,0,20.8-4.6,20.8-14.1
			c0-9.4-7.7-12.8-17.3-12.8h-8.7c-4.3,0-5.5-1.6-5.5-3.2c0-0.7,0.3-1.4,0.8-2c2.8,1,5.8,1.5,8.8,1.5c11.5,0,18.2-6.1,18.2-15.9
			C78.3,237.3,77.4,234,75.4,231.3z M60,233.1c5.4,0,8.5,3.3,8.5,7.6s-3.1,7.6-8.5,7.6s-8.5-3.3-8.5-7.6S54.6,233.1,60,233.1z
			 M61.2,278.5c-7.1,0-10.8-1.7-10.8-5.2c0-2,1.9-4.1,5.4-4.8h8.8c4.2,0,7.3,1.6,7.3,4.6C71.8,276.8,66.8,278.5,61.2,278.5
			L61.2,278.5z"/>
		<path id="Pfad_316" class="st0" d="M105.6,268.3c2.3,0,4.2-1.9,4.2-4.2c0-2.3-1.9-4.2-4.2-4.2h-2.2v-15.3
			c0-6.2,3.6-10.3,10.1-10.3c2.6,0,4.7-2.1,4.7-4.7c0-2.6-2.1-4.7-4.7-4.7l0,0c-3.9,0-8.3,2.3-10.1,6v-0.5c0-2.6-2.1-4.3-4.7-4.3
			h-7.6c-2.3,0-4.2,1.9-4.2,4.2c0,0,0,0,0,0c0,2.3,1.8,4.1,4,4.2c0.1,0,0.1,0,0.2,0h2.2V260h-2.2c-2.3,0-4.2,1.9-4.2,4.2
			c0,0,0,0,0,0c0,2.3,1.8,4.1,4,4.2c0.1,0,0.1,0,0.2,0H105.6z"/>
		<path id="Pfad_317" class="st0" d="M142.2,269.6c8.5,0,13.4-3.6,15-5.1c1-0.9,1.6-2.1,1.6-3.4c0-2.4-2-4.4-4.4-4.4c0,0,0,0,0,0
			c-1.1,0-2.1,0.4-3,1c-2.7,1.9-5.9,2.9-9.2,2.9c-6.1,0-10.9-3.1-10.9-9.8h23c5.7,0,5.7-4,5.7-7.4c0-6.4-2.9-18.5-18.6-18.5
			c-12.7,0-20.1,8-20.1,22.3C121.2,262.6,129.2,269.6,142.2,269.6z M150,242.4h-18.4c0.5-6,4.4-9,9.8-9
			C147.4,233.3,150,237.8,150,242.4z"/>
		<path id="Pfad_318" class="st0" d="M187.2,269.6c8.5,0,13.4-3.6,15-5.1c1-0.9,1.6-2.1,1.6-3.4c0-2.4-2-4.4-4.4-4.4c0,0,0,0,0,0
			c-1.1,0-2.1,0.4-3,1c-2.7,1.9-5.9,2.9-9.2,2.9c-6.1,0-10.9-3.1-10.9-9.8h23c5.7,0,5.7-4,5.7-7.4c0-6.4-2.9-18.5-18.6-18.5
			c-12.7,0-20.1,8-20.1,22.3C166.2,262.6,174.2,269.6,187.2,269.6L187.2,269.6z M195,242.4h-18.4c0.5-6,4.4-9,9.8-9
			C192.4,233.3,195,237.8,195,242.4z"/>
		<path id="Pfad_319" class="st0" d="M229.4,268.3c2.3,0,4.2-1.9,4.2-4.2c0-2.3-1.9-4.2-4.2-4.2h-2.2v-16c0-5.8,2.3-10.1,9.3-10.1
			c6.1,0,8.2,3.6,8.2,8.9V260h-2.2c-2.3,0-4.2,1.9-4.2,4.2c0,0,0,0,0,0c0,2.3,1.8,4.1,4,4.2c0.1,0,0.1,0,0.2,0H257
			c2.3,0,4.2-1.9,4.2-4.2c0-2.3-1.9-4.2-4.2-4.2l0,0h-2.2v-19c0-8.1-3-16.2-15.6-16.2c-6.2,0-10.1,2.9-11.9,5.6c0-2.7-2-4.3-4.7-4.3
			h-7.5c-2.3,0-4.2,1.9-4.2,4.2c0,0,0,0,0,0c0,2.3,1.8,4.1,4,4.2c0.1,0,0.1,0,0.2,0h2.2V260h-2.2c-2.3,0-4.2,1.9-4.2,4.2
			c0,0,0,0,0,0c0,2.3,1.8,4.1,4,4.2c0.1,0,0.1,0,0.2,0H229.4z"/>
		<path id="Pfad_320" class="st0" d="M304.6,234.4c2.3,0,4.2-1.9,4.2-4.2c0-2.3-1.9-4.2-4.2-4.2c0,0,0,0,0,0h-12.7
			c-2.3,0-4.2,1.9-4.2,4.2c0,0,0,0,0,0c0,2.3,1.8,4.1,4,4.2c0.1,0,0.1,0,0.2,0h0.8l-7.8,19.9l-7.9-19.9h0.9c2.3,0,4.2-1.9,4.2-4.2
			c0-2.3-1.9-4.2-4.2-4.2c0,0,0,0,0,0h-12.7c-2.3,0-4.2,1.9-4.2,4.2c0,0,0,0,0,0c0,2.3,1.8,4.1,4,4.2c0.1,0,0.1,0,0.2,0h1l13.4,30.9
			c-3.1,7.6-5.9,12.4-11.8,12.4c-2.6-0.1-4.7,1.9-4.8,4.5c-0.1,2.6,1.9,4.7,4.5,4.8c0.1,0,0.3,0,0.4,0c9.3,0,15.3-6.5,19.3-15.6
			l16.4-37L304.6,234.4z"/>
	</g>
	<path id="Pfad_321" class="st1" d="M114.2,158.3c-8.9-13.4-14.8-30.4-14.8-47.7c0-46.7,37.9-84.5,84.5-84.5
		c16.8,0,33.3,5,47.2,14.4c1.5,1,3.6,0.6,4.6-0.9s0.6-3.6-0.9-4.6l0,0c-41.7-28.2-98.3-17.2-126.5,24.5
		c-23.9,35.4-20,82.7,9.4,113.7c-1.9-4.8-3.1-9.9-3.7-15.1C114.1,158.2,114.2,158.2,114.2,158.3z"/>
	<path id="Pfad_322" class="st0" d="M268.5,104c-3.7,0-6.6,3-6.6,6.6c0,43-34.7,77.8-77.7,77.9c-0.1,0-0.1,0-0.2,0
		c-19.8,0.1-38.9-7.5-53.3-21.1c-6.6-7.5-6.1-15-0.2-17.8c16.3-7.9,61.9,7.4,98.7-19.2s34.3-95,34.3-95s-7.2,13.6-18.8,19.8
		c-13.5,7.3-29,8-54.8,12.1c-49.8,7.8-54.2,48.7-54.2,48.7c12-5.6,25-9,38.2-10c41.6-3.3,58.6-18.6,58.6-18.6s-16.2,23.7-55.1,28.5
		c-1.3,0.2-2.5,0.3-3.7,0.5c-0.4,0.1-0.8,0.1-1.2,0.2c-0.8,0.1-1.6,0.2-2.4,0.4c-0.5,0.1-0.9,0.1-1.4,0.2c-0.7,0.1-1.5,0.2-2.2,0.4
		c-0.5,0.1-0.9,0.2-1.4,0.3c-0.7,0.1-1.4,0.3-2,0.4c-0.5,0.1-0.9,0.2-1.4,0.3c-0.7,0.1-1.3,0.3-2,0.4c-0.4,0.1-0.9,0.2-1.3,0.3
		c-0.7,0.2-1.4,0.3-2.1,0.5c-0.4,0.1-0.7,0.2-1.1,0.3c-1,0.3-2,0.5-3,0.8c-0.2,0.1-0.4,0.1-0.6,0.2c-0.8,0.2-1.6,0.4-2.3,0.7
		c-0.4,0.1-0.7,0.2-1.1,0.3c-0.6,0.2-1.2,0.4-1.7,0.5c-0.4,0.1-0.8,0.3-1.2,0.4c-0.5,0.2-1,0.4-1.5,0.5c-0.4,0.1-0.8,0.3-1.2,0.4
		c-0.5,0.2-1,0.4-1.4,0.6c-0.4,0.2-0.8,0.3-1.2,0.5c-0.5,0.2-0.9,0.4-1.4,0.6c-0.4,0.2-0.7,0.3-1.1,0.5c-0.5,0.2-0.9,0.4-1.4,0.6
		c-0.3,0.2-0.7,0.3-1,0.5c-0.7,0.4-1.4,0.7-2.1,1.1c-0.3,0.2-0.6,0.3-0.9,0.5c-0.4,0.2-0.8,0.5-1.2,0.7c-0.3,0.2-0.7,0.4-1,0.6
		c-0.3,0.2-0.7,0.4-1,0.6s-0.6,0.4-1,0.6c-0.3,0.2-0.6,0.4-0.9,0.6c-0.3,0.2-0.6,0.4-0.9,0.7c-0.3,0.2-0.6,0.4-0.8,0.6
		c-0.3,0.2-0.6,0.5-0.9,0.7c-0.3,0.2-0.5,0.4-0.8,0.6c-0.3,0.2-0.6,0.5-0.8,0.7c-0.2,0.2-0.5,0.4-0.7,0.7c-0.3,0.3-0.5,0.5-0.8,0.8
		c0,0,0,0.1-0.1,0.1c-0.7,0.7-1.3,1.4-1.8,2.1c-0.2,0.2-0.4,0.4-0.5,0.7c-0.2,0.3-0.4,0.6-0.6,0.9c-0.2,0.2-0.3,0.5-0.5,0.7
		c-0.2,0.3-0.4,0.6-0.5,0.9c-0.1,0.2-0.3,0.5-0.4,0.7c-0.2,0.3-0.3,0.6-0.5,0.9c-0.1,0.2-0.2,0.5-0.3,0.7c-0.1,0.3-0.3,0.6-0.4,0.9
		c-0.1,0.2-0.2,0.5-0.3,0.7c-0.1,0.3-0.2,0.6-0.4,1c-0.1,0.2-0.1,0.4-0.2,0.7c-0.3,0.9-0.5,1.8-0.6,2.7v0c-0.2,1.6-0.3,3.2-0.3,4.8
		l0,0c0,0.5,0,1.1,0.1,1.6c0.1,0.6,0.1,1.1,0.2,1.7c-0.1-0.1-0.1-0.2-0.1-0.2c0.1,4.6,1,8.8,3.7,15.1c0.1,0.2,0.3,0.4,0.4,0.6
		c17.1,18,40.9,28.1,65.8,28c40.7-0.1,76.5-27.1,87.7-66.3c0.3-1.2,0.6-2.3,0.9-3.5c1.7-7,2.5-14.2,2.5-21.4
		C275.1,106.9,272.1,104,268.5,104z"/>
	<g id="Gruppe_526">
		<path id="Pfad_323" class="st1" d="M362.1,250.6c0,3.1-2.4,5.6-5.5,5.7c-0.1,0-0.1,0-0.2,0h-14.2v14.1c0,1.5-0.5,3-1.6,4
			c-1,1.1-2.5,1.7-4,1.6c-3.1,0-5.6-2.4-5.7-5.5c0-0.1,0-0.1,0-0.2v-14.1h-14.1c-3.1,0-5.7-2.5-5.7-5.7c0-3.1,2.5-5.7,5.7-5.7H331
			v-14.1c0-3.1,2.4-5.6,5.5-5.7c0.1,0,0.1,0,0.2,0c1.5,0,2.9,0.6,4,1.7c1.1,1.1,1.7,2.5,1.6,4v14.1h14.2
			C359.6,244.9,362.1,247.4,362.1,250.6C362.1,250.6,362.1,250.6,362.1,250.6z"/>
	</g>
	<g id="Gruppe_527">
		<path id="Pfad_324" class="st2" d="M128.1,293.2c-0.3-0.3-0.4-0.6-0.4-1c0-0.7,0.6-1.3,1.3-1.3h11.2c0.7,0,1.3,0.6,1.3,1.3
			c0,0.4-0.1,0.7-0.4,1c-0.2,0.3-0.6,0.4-0.9,0.4h-4.1v13.8c0,0.8-0.7,1.5-1.6,1.5c-0.8,0-1.5-0.7-1.5-1.5v-13.8h-4.1
			C128.7,293.6,128.4,293.4,128.1,293.2z"/>
		<path id="Pfad_325" class="st2" d="M150.1,307.1v-14.7c0-0.8,0.7-1.5,1.5-1.5c0,0,0,0,0,0h8.3c0.8,0,1.4,0.6,1.4,1.4c0,0,0,0,0,0
			c0,0.4-0.1,0.7-0.4,1c-0.3,0.3-0.6,0.4-1,0.4h-6.7v4.7h5c0.4,0,0.7,0.1,0.9,0.4c0.3,0.3,0.4,0.6,0.4,1c0,0.7-0.6,1.3-1.3,1.3h-5
			v4.9h7c0.8,0,1.4,0.6,1.4,1.4c0,0.4-0.1,0.7-0.4,1c-0.3,0.3-0.6,0.4-1,0.4h-8.5c-0.4,0-0.8-0.2-1.1-0.5
			C150.2,307.9,150.1,307.5,150.1,307.1z"/>
		<path id="Pfad_326" class="st2" d="M169.6,299.8c0-3.1,0.7-5.4,2.1-7c1.4-1.6,3.5-2.3,6.1-2.3c1.3,0,2.7,0.2,3.9,0.8
			c1,0.5,1.9,1.2,2.5,2.1c0.2,0.3,0.3,0.6,0.3,0.9c0,0.4-0.1,0.7-0.4,1c-0.3,0.3-0.6,0.4-1,0.4c-0.4,0-0.8-0.2-1.1-0.5
			c-0.5-0.6-1.1-1.1-1.8-1.4c-0.7-0.3-1.5-0.5-2.3-0.5c-1.5-0.1-2.9,0.5-3.9,1.6c-0.9,1.5-1.4,3.2-1.2,4.9c0,2.3,0.4,3.9,1.2,5
			c1,1.1,2.4,1.7,3.9,1.5c0.8,0,1.6-0.1,2.4-0.4c0.7-0.3,1.4-0.8,1.9-1.4c0.3-0.3,0.7-0.6,1.1-0.6c0.8,0,1.4,0.6,1.4,1.4
			c0,0,0,0,0,0c0,0.3-0.1,0.6-0.3,0.8c-0.7,0.9-1.7,1.6-2.7,2.1c-1.2,0.5-2.5,0.8-3.8,0.8C172.3,309,169.6,305.9,169.6,299.8z"/>
		<path id="Pfad_327" class="st2" d="M193.5,307.3v-15.2c0-0.8,0.7-1.5,1.5-1.5c0,0,0,0,0,0c0.4,0,0.8,0.2,1.1,0.4
			c0.3,0.3,0.5,0.7,0.4,1.1v6h7.6v-6c0-0.8,0.7-1.5,1.5-1.5c0.8,0,1.5,0.7,1.5,1.5v15.2c0,0.8-0.7,1.5-1.5,1.5s-1.5-0.7-1.5-1.5V301
			h-7.6v6.4c0,0.8-0.7,1.5-1.5,1.5S193.5,308.2,193.5,307.3z"/>
		<path id="Pfad_328" class="st2" d="M216.6,307.4v-15.2c0-0.4,0.2-0.8,0.4-1.1c0.3-0.3,0.7-0.5,1.1-0.5c0.5,0,1,0.2,1.2,0.6
			l7.8,11.4v-10.5c0-0.8,0.7-1.5,1.5-1.5c0.4,0,0.8,0.2,1.1,0.5c0.3,0.3,0.4,0.7,0.4,1.1v15.2c0,0.8-0.7,1.5-1.5,1.5
			c-0.5,0-1-0.2-1.3-0.7l-7.8-11.3v10.4c0,0.4-0.2,0.8-0.5,1.1c-0.3,0.3-0.7,0.4-1.1,0.4C217.3,308.8,216.6,308.2,216.6,307.4
			L216.6,307.4z"/>
		<path id="Pfad_329" class="st2" d="M238.9,299.8c0-3.1,0.7-5.4,2.2-7c1.4-1.6,3.5-2.3,6.2-2.3c2.7,0,4.8,0.8,6.2,2.3
			c1.4,1.5,2.2,3.9,2.1,7c0,3.1-0.7,5.4-2.2,6.9c-1.4,1.6-3.5,2.3-6.2,2.3c-2.7,0-4.8-0.8-6.2-2.3
			C239.6,305.1,238.9,302.8,238.9,299.8z M242,299.8c0,4.3,1.7,6.5,5.2,6.5c3.5,0,5.2-2.2,5.2-6.5c0-2.2-0.4-3.8-1.3-4.9
			c-1-1.1-2.4-1.7-3.9-1.6C243.8,293.2,242,295.4,242,299.8L242,299.8z"/>
		<path id="Pfad_330" class="st2" d="M264.4,307.2v-15c0-0.8,0.7-1.5,1.5-1.5c0,0,0,0,0,0c0.4,0,0.8,0.2,1.1,0.4
			c0.3,0.3,0.5,0.7,0.4,1.1v13.7h6.3c0.4,0,0.8,0.1,1.1,0.4c0.3,0.2,0.4,0.6,0.4,1c0,0.4-0.1,0.7-0.4,1c-0.3,0.3-0.7,0.4-1.1,0.4
			H266c-0.4,0-0.8-0.1-1.1-0.4C264.6,307.9,264.4,307.6,264.4,307.2z"/>
		<path id="Pfad_331" class="st2" d="M281.5,299.8c0-3.1,0.7-5.4,2.2-7c1.4-1.6,3.5-2.3,6.2-2.3c2.7,0,4.8,0.8,6.2,2.3
			c1.4,1.5,2.2,3.9,2.1,7c0,3.1-0.7,5.4-2.2,6.9c-1.4,1.6-3.5,2.3-6.2,2.3c-2.7,0-4.8-0.8-6.2-2.3
			C282.2,305.1,281.5,302.8,281.5,299.8z M284.7,299.8c0,4.3,1.7,6.5,5.2,6.5c3.5,0,5.2-2.2,5.2-6.5c0-2.2-0.4-3.8-1.3-4.9
			c-1-1.1-2.4-1.7-3.9-1.6C286.4,293.2,284.7,295.4,284.7,299.8z"/>
		<path id="Pfad_332" class="st2" d="M306.4,299.8c0-3.1,0.7-5.4,2.1-7c1.4-1.6,3.5-2.3,6.1-2.3c1.3,0,2.7,0.2,3.9,0.8
			c1,0.5,1.9,1.2,2.5,2.1c0.2,0.3,0.3,0.6,0.3,0.9c0,0.4-0.1,0.7-0.4,1c-0.3,0.3-0.6,0.4-1,0.4c-0.4,0-0.8-0.2-1.1-0.5
			c-0.5-0.6-1.1-1.1-1.8-1.4c-0.7-0.3-1.5-0.5-2.3-0.5c-1.5-0.1-2.9,0.5-3.9,1.6c-0.9,1.5-1.4,3.2-1.2,4.9c0,2.3,0.4,3.9,1.2,5
			c1,1.1,2.4,1.7,3.9,1.5c1.6,0.1,3.2-0.4,4.4-1.5v-3h-3.6c-0.4,0-0.7-0.1-0.9-0.4c-0.3-0.3-0.4-0.6-0.4-1c0-0.7,0.6-1.3,1.3-1.3
			h5.1c0.4,0,0.7,0.2,1,0.4c0.3,0.2,0.4,0.6,0.4,1v4.2c0,0.5-0.1,1-0.5,1.4c-0.8,0.9-1.8,1.7-2.9,2.1c-1.3,0.5-2.7,0.8-4,0.8
			C309.2,309,306.4,305.9,306.4,299.8z"/>
		<path id="Pfad_333" class="st2" d="M329.9,292.2c0-0.8,0.7-1.5,1.5-1.5c0.5,0,1,0.3,1.3,0.7l4,6.3l4-6.3c0.3-0.5,0.8-0.7,1.3-0.7
			c0.4,0,0.8,0.2,1.1,0.4c0.3,0.3,0.5,0.7,0.5,1.1c0,0.3-0.1,0.6-0.2,0.8l-5,7.5v6.8c0,0.4-0.2,0.8-0.4,1.1c-0.6,0.6-1.6,0.6-2.2,0
			c-0.3-0.3-0.5-0.7-0.5-1.1v-6.8l-5.1-7.5C330,292.8,329.9,292.5,329.9,292.2z"/>
	</g>
</g>
</svg>
