<?xml version="1.0" encoding="utf-8"?>
<!-- Generator: Adobe Illustrator 25.2.1, SVG Export Plug-In . SVG Version: 6.00 Build 0)  -->
<svg version="1.1" id="Ebene_1" xmlns="http://www.w3.org/2000/svg" xmlns:xlink="http://www.w3.org/1999/xlink" x="0px" y="0px"
	 viewBox="0 0 283.5 283.5" style="enable-background:new 0 0 283.5 283.5;" xml:space="preserve">
<style type="text/css">
	.st0{fill:#58585A;}
</style>
<g>
	<path class="st0" d="M126.4,214.6h32.5v-27.3h-32.5V214.6z M130.4,191.3h24.5v19.3h-24.5V191.3z"/>
	<path class="st0" d="M135.5,186.3c1.5,0,2.7-1.2,2.7-2.7s-1.2-2.7-2.7-2.7s-2.7,1.2-2.7,2.7S134,186.3,135.5,186.3z M135.5,182.3
		c0.7,0,1.3,0.6,1.3,1.3s-0.6,1.3-1.3,1.3s-1.3-0.6-1.3-1.3S134.8,182.3,135.5,182.3z"/>
	<path class="st0" d="M142.6,186.3c1.5,0,2.7-1.2,2.7-2.7s-1.2-2.7-2.7-2.7s-2.7,1.2-2.7,2.7S141.1,186.3,142.6,186.3z M142.6,182.3
		c0.7,0,1.3,0.6,1.3,1.3s-0.6,1.3-1.3,1.3c-0.7,0-1.3-0.6-1.3-1.3S141.9,182.3,142.6,182.3z"/>
	<path class="st0" d="M146.9,183.6c0,1.5,1.2,2.7,2.7,2.7s2.7-1.2,2.7-2.7s-1.2-2.7-2.7-2.7S146.9,182.1,146.9,183.6z M150.9,183.6
		c0,0.7-0.6,1.3-1.3,1.3c-0.7,0-1.3-0.6-1.3-1.3s0.6-1.3,1.3-1.3C150.3,182.3,150.9,182.9,150.9,183.6z"/>
	<path class="st0" d="M177.5,38.5c0-2.8-2.3-5.1-5.1-5.1s-5.1,2.3-5.1,5.1V133l-12.1-5.4v-94c0-2.5-2-4.5-4.5-4.5h-16.8
		c-2.5,0-4.5,2-4.5,4.5v94l-12.1,5.4V38.5c0-2.8-2.3-5.1-5.1-5.1c-2.8,0-5.1,2.3-5.1,5.1v114c0,2.8,2.3,5.1,5.1,5.1
		c2.8,0,5.1-2.3,5.1-5.1v-4.6l12.1-5.4v6.9c0,2.6-4.8,11.6-7.9,17.5c-3.8,7.2-5.1,9.8-5.1,11.3v62.4c0,3.2,2.2,5.9,5.2,6.7v3
		c0,2.3,1.9,4.2,4.2,4.2h0.4c2.3,0,4.2-1.9,4.2-4.2v-2.7h24.6v2.7c0,2.3,1.9,4.2,4.2,4.2h0.4c2.3,0,4.2-1.9,4.2-4.2v-3.2
		c2.7-1,4.6-3.5,4.6-6.5v-62.4c0-1.5-1.3-4.1-5.1-11.3c-3.1-5.9-7.9-14.9-7.9-17.5v-6.9l12.1,5.4v4.6c0,2.8,2.3,5.1,5.1,5.1
		s5.1-2.3,5.1-5.1V38.5z M112.1,153.7c-0.6,0-1.1-0.5-1.1-1.1v-114c0-0.6,0.5-1.1,1.1-1.1c0.6,0,1.1,0.5,1.1,1.1v97.6c0,0,0,0,0,0
		v10.5c0,0,0,0,0,0v5.9C113.2,153.2,112.7,153.7,112.1,153.7z M117.2,143.6v-6.2l12.1-5.4v6.2L117.2,143.6z M126.2,250.3
		c0,0.1-0.1,0.2-0.2,0.2h-0.4c-0.1,0-0.2-0.1-0.2-0.2v-2.7h0.8V250.3z M159.6,250.3c0,0.1-0.1,0.2-0.2,0.2H159
		c-0.1,0-0.2-0.1-0.2-0.2v-2.7h0.8V250.3z M159.5,168.8c2,3.7,4.4,8.4,4.7,9.5v62.3c0,1.6-1.3,2.9-2.9,2.9h-2.4v-18c0-1.1-0.9-2-2-2
		s-2,0.9-2,2v18h-24.6v-18.1c0-1.1-0.9-2-2-2s-2,0.9-2,2v18.1h-3c-1.6,0-2.9-1.3-2.9-2.9v-62.3c0.2-1.1,2.7-5.8,4.7-9.5
		c4.9-9.3,8.4-16.1,8.4-19.4v-10c0,0,0,0,0,0v-10.5c0,0,0,0,0,0V33.6c0-0.3,0.2-0.5,0.5-0.5h16.8c0.3,0,0.5,0.2,0.5,0.5v95.2
		c0,0,0,0,0,0v10.5c0,0,0,0,0,0v10C151.1,152.7,154.6,159.6,159.5,168.8z M155.1,138.2V132l12.1,5.4v6.2L155.1,138.2z M173.5,152.5
		c0,0.6-0.5,1.1-1.1,1.1s-1.1-0.5-1.1-1.1v-5.9c0,0,0,0,0,0v-10.5c0,0,0,0,0,0V38.5c0-0.6,0.5-1.1,1.1-1.1s1.1,0.5,1.1,1.1V152.5z"
		/>
	<path class="st0" d="M106.5,240.9c-41.8-14.9-69.9-54.7-69.9-99.1c0-40.6,23.8-78,60.6-95.3c1-0.5,1.4-1.7,1-2.7
		c-0.5-1-1.7-1.4-2.7-1c-38.2,17.9-62.9,56.7-62.9,98.9c0,46.1,29.2,87.4,72.6,102.9c0.2,0.1,0.4,0.1,0.7,0.1c0.8,0,1.6-0.5,1.9-1.3
		C108,242.4,107.5,241.2,106.5,240.9z"/>
	<path class="st0" d="M189,42.2c-1-0.5-2.2,0-2.7,1c-0.5,1,0,2.2,1,2.7c36.8,17.3,60.6,54.7,60.6,95.3c0,44.4-28.1,84.2-69.9,99.1
		c-1,0.4-1.6,1.5-1.2,2.6c0.3,0.8,1.1,1.3,1.9,1.3c0.2,0,0.4,0,0.7-0.1c43.4-15.4,72.6-56.8,72.6-102.9
		C251.9,98.9,227.2,60.1,189,42.2z"/>
</g>
</svg>
